<svg width="16" height="18" viewBox="0 0 16 18" fill="none" xmlns="http://www.w3.org/2000/svg">
<path fill-rule="evenodd" clip-rule="evenodd" d="M3.14539 0L0 0L0 3.85511L10.363 8.70487L0 13.5983L0 17.4545H3.14297L16 10.9152V6.5313L3.14539 0Z" fill="#031D51"/>
</svg>
