<svg width="27" height="24" viewBox="0 0 27 24" fill="none" xmlns="http://www.w3.org/2000/svg">
<path fill-rule="evenodd" clip-rule="evenodd" d="M27 4.71809L27 0L21.2173 -2.52769e-07L13.9427 15.5445L6.60249 -8.91603e-07L0.818182 -1.14444e-06L0.818182 4.71445L10.6271 24L17.2031 24L27 4.71809Z" fill="white"/>
</svg>
