<svg width="141" height="120" viewBox="0 0 141 120" fill="none" xmlns="http://www.w3.org/2000/svg">
<path fill-rule="evenodd" clip-rule="evenodd" d="M130.306 55.0379L129.374 56.7665L128.591 54.9604L127.911 54.9294L127.888 55.4652L128.941 57.7102L129.714 57.7463L130.961 55.6059L130.986 55.0689L130.306 55.0379Z" fill="#031D51"/>
<path fill-rule="evenodd" clip-rule="evenodd" d="M130.306 17.8657L129.374 19.7671L128.591 17.7805L127.911 17.7464L127.888 18.3357L128.941 20.8052L129.714 20.845L130.961 18.4905L130.986 17.8997L130.306 17.8657Z" fill="#031D51"/>
<path fill-rule="evenodd" clip-rule="evenodd" d="M110.931 55.0379L110.083 56.7665L109.371 54.9604L108.753 54.9294L108.732 55.4652L109.69 57.7102L110.392 57.7463L111.526 55.6059L111.549 55.0689L110.931 55.0379Z" fill="#EAE6DC"/>
<path fill-rule="evenodd" clip-rule="evenodd" d="M110.931 17.8657L110.083 19.7671L109.371 17.7805L108.753 17.7464L108.732 18.3357L109.69 20.8052L110.392 20.845L111.526 18.4905L111.549 17.8997L110.931 17.8657Z" fill="#54C6D3"/>
<path fill-rule="evenodd" clip-rule="evenodd" d="M91.7776 55.0379L90.929 56.7665L90.2169 54.9604L89.5987 54.9294L89.5775 55.4652L90.5359 57.7102L91.2388 57.7463L92.3732 55.6059L92.3944 55.0689L91.7776 55.0379Z" fill="#031D51"/>
<path fill-rule="evenodd" clip-rule="evenodd" d="M91.7776 17.8657L90.929 19.7671L90.2169 17.7805L89.5987 17.7464L89.5775 18.3357L90.5359 20.8052L91.2388 20.845L92.3732 18.4905L92.3944 17.8997L91.7776 17.8657Z" fill="#031D51"/>
<path fill-rule="evenodd" clip-rule="evenodd" d="M72.5598 55.0379L71.6269 56.7665L70.8438 54.9604L70.1642 54.9294L70.1409 55.4652L71.1946 57.7102L71.9674 57.7463L73.2147 55.6059L73.2395 55.0689L72.5598 55.0379Z" fill="#031D51"/>
<path fill-rule="evenodd" clip-rule="evenodd" d="M72.5598 17.8657L71.6269 19.7671L70.8438 17.7805L70.1642 17.7464L70.1409 18.3357L71.1946 20.8052L71.9674 20.845L73.2147 18.4905L73.2395 17.8997L72.5598 17.8657Z" fill="#031D51"/>
<path fill-rule="evenodd" clip-rule="evenodd" d="M53.186 55.0379L52.3375 56.7665L51.6254 54.9604L51.0072 54.9294L50.986 55.4652L51.9444 57.7102L52.6473 57.7463L53.7817 55.6059L53.8029 55.0689L53.186 55.0379Z" fill="#031D51"/>
<path fill-rule="evenodd" clip-rule="evenodd" d="M53.186 17.8657L52.3375 19.7671L51.6254 17.7805L51.0072 17.7464L50.986 18.3357L51.9444 20.8052L52.6473 20.845L53.7817 18.4905L53.8029 17.8997L53.186 17.8657Z" fill="#7572B5"/>
<path fill-rule="evenodd" clip-rule="evenodd" d="M33.9682 55.0379L33.0353 56.7665L32.2523 54.9604L31.5726 54.9294L31.5493 55.4652L32.603 57.7102L33.3759 57.7463L34.6232 55.6059L34.6479 55.0689L33.9682 55.0379Z" fill="#9EC7E5"/>
<path fill-rule="evenodd" clip-rule="evenodd" d="M33.9682 17.8657L33.0353 19.7671L32.2523 17.7805L31.5726 17.7464L31.5493 18.3357L32.603 20.8052L33.3759 20.845L34.6232 18.4905L34.6479 17.8997L33.9682 17.8657Z" fill="#031D51"/>
<path fill-rule="evenodd" clip-rule="evenodd" d="M14.5945 55.0379L13.746 56.7665L13.0338 54.9604L12.4156 54.9294L12.3945 55.4652L13.3529 57.7102L14.0558 57.7463L15.1902 55.6059L15.2114 55.0689L14.5945 55.0379Z" fill="#031D51"/>
<path fill-rule="evenodd" clip-rule="evenodd" d="M14.5945 17.8657L13.746 19.7671L13.0338 17.7805L12.4156 17.7464L12.3945 18.3357L13.3529 20.8052L14.0558 20.845L15.1902 18.4905L15.2114 17.8997L14.5945 17.8657Z" fill="#9EC7E5"/>
<path fill-rule="evenodd" clip-rule="evenodd" d="M116.848 73.9223L115.999 75.8238L115.287 73.8371L114.669 73.803L114.648 74.3923L115.606 76.8618L116.309 76.9016L117.443 74.5471L117.465 73.9564L116.848 73.9223Z" fill="#031D51"/>
<path fill-rule="evenodd" clip-rule="evenodd" d="M89.1796 73.9223L88.2466 75.8238L87.4636 73.8371L86.7839 73.803L86.7607 74.3923L87.8144 76.8618L88.5872 76.9016L89.8345 74.5471L89.8592 73.9564L89.1796 73.9223Z" fill="#031D51"/>
<path fill-rule="evenodd" clip-rule="evenodd" d="M61.2925 73.9223L60.3596 75.8238L59.5765 73.8371L58.8969 73.803L58.8736 74.3923L59.9273 76.8618L60.7001 76.9016L61.9474 74.5471L61.9722 73.9564L61.2925 73.9223Z" fill="#7572B5"/>
<path fill-rule="evenodd" clip-rule="evenodd" d="M34.2509 73.9223L33.3176 75.8238L32.5342 73.8371L31.8542 73.803L31.8309 74.3923L32.8851 76.8618L33.6583 76.9016L34.9062 74.5471L34.9295 73.9564L34.2509 73.9223Z" fill="#031D51"/>
<path fill-rule="evenodd" clip-rule="evenodd" d="M110.931 116.955L110.083 118.856L109.371 116.869L108.753 116.835L108.732 117.425L109.69 119.894L110.392 119.934L111.526 117.579L111.549 116.989L110.931 116.955Z" fill="#9EC7E5"/>
<path fill-rule="evenodd" clip-rule="evenodd" d="M72.5598 117.021L71.6269 118.922L70.8438 116.935L70.1642 116.901L70.1409 117.491L71.1946 119.96L71.9674 120L73.2147 117.646L73.2395 117.055L72.5598 117.021Z" fill="#031D51"/>
<path fill-rule="evenodd" clip-rule="evenodd" d="M36.847 115.612L35.9989 117.514L35.2871 115.526L34.6692 115.493L34.648 116.083L35.6059 118.552L36.3085 118.592L37.4424 116.236L37.4649 115.647L36.847 115.612Z" fill="#54C6D3"/>
<path fill-rule="evenodd" clip-rule="evenodd" d="M139.945 37.0207L139.097 38.9222L138.385 36.9355L137.768 36.9014L137.746 37.4907L138.704 39.9602L139.407 40L140.541 37.6455L140.563 37.0548L139.945 37.0207Z" fill="#031D51"/>
<path fill-rule="evenodd" clip-rule="evenodd" d="M139.945 0.119083L139.097 2.02056L138.385 0.0338785L137.768 -0.000203134L137.746 0.589126L138.704 3.05863L139.407 3.09839L140.541 0.743913L140.563 0.153165L139.945 0.119083Z" fill="#031D51"/>
<path fill-rule="evenodd" clip-rule="evenodd" d="M120.166 37.0207L119.233 38.9222L118.45 36.9355L117.77 36.9014L117.747 37.4907L118.8 39.9602L119.573 40L120.82 37.6455L120.845 37.0548L120.166 37.0207Z" fill="#031D51"/>
<path fill-rule="evenodd" clip-rule="evenodd" d="M120.166 0.119083L119.233 2.02056L118.45 0.0338785L117.77 -0.000203134L117.747 0.589126L118.8 3.05863L119.573 3.09839L120.82 0.743913L120.845 0.153164L120.166 0.119083Z" fill="#031D51"/>
<path fill-rule="evenodd" clip-rule="evenodd" d="M100.729 37.0204L99.796 38.9219L99.013 36.9352L98.3333 36.9012L98.31 37.4905L99.3637 39.96L100.137 39.9998L101.384 37.6453L101.409 37.0545L100.729 37.0204Z" fill="#031D51"/>
<path fill-rule="evenodd" clip-rule="evenodd" d="M100.729 0.119083L99.796 2.02056L99.013 0.0338785L98.3333 -0.000203134L98.31 0.589126L99.3637 3.05863L100.137 3.09839L101.384 0.743913L101.409 0.153164L100.729 0.119083Z" fill="#9EC7E5"/>
<path fill-rule="evenodd" clip-rule="evenodd" d="M81.0731 37.0204L80.2246 38.9219L79.5124 36.9352L78.8943 36.9012L78.8731 37.4905L79.8315 39.96L80.5344 39.9998L81.6688 37.6453L81.69 37.0545L81.0731 37.0204Z" fill="#9EC7E5"/>
<path fill-rule="evenodd" clip-rule="evenodd" d="M81.0731 0.119083L80.2246 2.02056L79.5124 0.0338785L78.8943 -0.000203134L78.8731 0.589126L79.8315 3.05863L80.5344 3.09839L81.6688 0.743913L81.69 0.153165L81.0731 0.119083Z" fill="#031D51"/>
<path fill-rule="evenodd" clip-rule="evenodd" d="M61.2925 37.0204L60.3596 38.9219L59.5765 36.9352L58.8969 36.9012L58.8736 37.4905L59.9273 39.96L60.7001 39.9998L61.9474 37.6453L61.9722 37.0545L61.2925 37.0204Z" fill="#031D51"/>
<path fill-rule="evenodd" clip-rule="evenodd" d="M61.2925 0.119083L60.3596 2.02056L59.5765 0.0338785L58.8969 -0.000203134L58.8736 0.589126L59.9273 3.05863L60.7001 3.09839L61.9474 0.743913L61.9722 0.153164L61.2925 0.119083Z" fill="#031D51"/>
<path fill-rule="evenodd" clip-rule="evenodd" d="M41.6357 37.0204L40.7875 38.9219L40.0757 36.9352L39.4578 36.9012L39.4366 37.4905L40.3946 39.96L41.0971 39.9998L42.2311 37.6453L42.2535 37.0545L41.6357 37.0204Z" fill="#031D51"/>
<path fill-rule="evenodd" clip-rule="evenodd" d="M41.6357 0.119083L40.7875 2.02056L40.0757 0.0338785L39.4578 -0.000203134L39.4366 0.589126L40.3946 3.05863L41.0971 3.09839L42.2311 0.743913L42.2535 0.153165L41.6357 0.119083Z" fill="#031D51"/>
<path fill-rule="evenodd" clip-rule="evenodd" d="M21.9172 37.0204L21.0691 38.9219L20.3573 36.9352L19.7394 36.9012L19.7182 37.4905L20.6761 39.96L21.3787 39.9998L22.5126 37.6453L22.5351 37.0545L21.9172 37.0204Z" fill="#031D51"/>
<path fill-rule="evenodd" clip-rule="evenodd" d="M21.9172 0.119083L21.0691 2.02056L20.3573 0.0338785L19.7394 -0.000203134L19.7182 0.589126L20.6761 3.05863L21.3787 3.09839L22.5126 0.743913L22.5351 0.153165L21.9172 0.119083Z" fill="#7572B5"/>
<path fill-rule="evenodd" clip-rule="evenodd" d="M2.41891 37.0204L1.48598 38.9219L0.702968 36.9352L0.0232866 36.9012L-1.09683e-07 37.4905L1.05372 39.96L1.82655 39.9998L3.07385 37.6453L3.09859 37.0545L2.41891 37.0204Z" fill="#EAE6DC"/>
<path fill-rule="evenodd" clip-rule="evenodd" d="M2.41891 0.119327L1.48598 2.0208L0.702968 0.0341227L0.0232866 4.1007e-05L-1.09683e-07 0.58937L1.05372 3.05887L1.82655 3.09863L3.07385 0.744157L3.09859 0.153409L2.41891 0.119327Z" fill="#031D51"/>
<path fill-rule="evenodd" clip-rule="evenodd" d="M29.8592 94.638L29.8592 94.0845L29.1752 94.0845L28.3136 95.9084L27.4447 94.0845L26.7607 94.0845L26.7607 94.638L27.9221 96.9014L28.6993 96.9014L29.8592 94.638Z" fill="#031D51"/>
<path fill-rule="evenodd" clip-rule="evenodd" d="M53.2395 94.638L53.2395 94.0845L52.5554 94.0845L51.6938 95.9084L50.8249 94.0845L50.1409 94.0845L50.1409 94.638L51.3023 96.9014L52.0795 96.9014L53.2395 94.638Z" fill="#9EC7E5"/>
<path fill-rule="evenodd" clip-rule="evenodd" d="M76.6194 94.638L76.6194 94.0845L75.9354 94.0845L75.0737 95.9084L74.2049 94.0845L73.5208 94.0845L73.5208 94.638L74.6822 96.9014L75.4594 96.9014L76.6194 94.638Z" fill="#031D51"/>
<path fill-rule="evenodd" clip-rule="evenodd" d="M99.7184 94.638L99.7184 94.0845L99.0966 94.0845L98.3133 95.9084L97.5234 94.0845L96.9015 94.0845L96.9015 94.638L97.9574 96.9014L98.6639 96.9014L99.7184 94.638Z" fill="#031D51"/>
<path fill-rule="evenodd" clip-rule="evenodd" d="M123.099 94.638L123.099 94.0845L122.477 94.0845L121.694 95.9084L120.904 94.0845L120.282 94.0845L120.282 94.638L121.338 96.9014L122.044 96.9014L123.099 94.638Z" fill="#031D51"/>
</svg>
