<svg xmlns="http://www.w3.org/2000/svg" width="20" height="20" fill="none" viewBox="0 0 20 20">
    <path fill="#031D51" d="M19 4.732c-.662.294-1.374.492-2.121.581.763-.457 1.348-1.18 1.624-2.043-.713.423-1.504.73-2.346.896C15.485 3.448 14.524 3 13.462 3c-2.384 0-4.136 2.224-3.598 4.534-3.068-.154-5.789-1.624-7.61-3.858-.968 1.66-.502 3.83 1.142 4.93-.605-.02-1.175-.185-1.672-.462-.04 1.711 1.185 3.312 2.962 3.668-.52.14-1.09.174-1.668.063.469 1.467 1.833 2.534 3.45 2.564C4.915 15.656 2.959 16.2 1 15.969c1.634 1.048 3.576 1.659 5.661 1.659 6.857 0 10.73-5.79 10.496-10.985.722-.52 1.348-1.171 1.843-1.911z"/>
</svg>
