<svg width="524" height="263" viewBox="0 0 524 263" fill="none" xmlns="http://www.w3.org/2000/svg">
<path d="M359.364 241.159L363.935 237.854L358.39 236.803L358.016 235.075L359.514 234.775L366.407 236.202L366.857 238.155L361.312 242.511L359.814 242.886L359.364 241.159Z" fill="#4CCEDE"/>
<path d="M168.232 237.403L162.687 238.38L167.183 241.759L166.808 243.487L165.31 243.111L159.765 238.755L160.215 236.803L167.108 235.376L168.606 235.676L168.232 237.403Z" fill="#4CCEDE"/>
<path d="M480.893 263.315L484.639 261.813L480.968 260.161L480.968 258.884L482.092 258.884L486.662 261.062L486.662 262.489L482.017 264.592L480.893 264.592L480.893 263.315Z" fill="#4CCEDE"/>
<path d="M518.805 232.146L521.802 230.343L518.43 229.367L518.28 228.316L519.254 228.165L523.45 229.517L523.6 230.794L519.854 233.122L518.88 233.272L518.805 232.146Z" fill="#4CCEDE"/>
<path d="M347.002 210.216L352.547 209.54L349.25 214.046L350.074 215.548L351.423 214.797L355.469 208.939L354.42 207.212L347.452 207.888L346.103 208.714L347.002 210.216Z" fill="#4CCEDE"/>
<path d="M328.945 188.586L334.04 186.333L332.167 191.59L333.441 192.792L334.565 191.665L336.662 184.906L335.239 183.554L328.72 186.258L327.671 187.385L328.945 188.586Z" fill="#4CCEDE"/>
<path d="M305.269 173.19L309.465 169.51L309.24 175.143L310.814 175.894L311.488 174.542L311.638 167.482L309.84 166.581L304.37 171.012L303.696 172.439L305.269 173.19Z" fill="#4CCEDE"/>
<path d="M276.348 165.454L279.345 160.723L280.769 166.13L282.492 166.431L282.717 164.853L280.769 158.094L278.82 157.794L274.849 163.652L274.625 165.154L276.348 165.454Z" fill="#4CCEDE"/>
<path d="M245.18 166.13L246.603 160.723L249.525 165.454L251.323 165.154L251.024 163.652L247.128 157.794L245.18 158.094L243.232 164.853L243.456 166.431L245.18 166.13Z" fill="#4CCEDE"/>
<path d="M216.708 175.143L216.408 169.51L220.679 173.19L222.253 172.439L221.578 171.012L216.109 166.581L214.311 167.482L214.46 174.542L215.135 175.894L216.708 175.143Z" fill="#4CCEDE"/>
<path d="M193.706 191.59L191.833 186.333L197.003 188.586L198.276 187.385L197.227 186.258L190.709 183.554L189.21 184.906L191.383 191.665L192.432 192.792L193.706 191.59Z" fill="#4CCEDE"/>
<path d="M176.698 214.046L173.401 209.54L178.945 210.216L179.845 208.714L178.496 207.888L171.453 207.287L170.479 208.939L174.45 214.797L175.799 215.548L176.698 214.046Z" fill="#4CCEDE"/>
<path d="M399.974 252.424L404.47 254.077L400.199 256.255L400.274 257.757L401.623 257.682L406.942 254.828L406.867 253.1L401.248 250.847L399.899 250.922L399.974 252.424Z" fill="#4CCEDE"/>
<path d="M391.283 211.643L396.078 211.868L392.556 215.248L393.156 216.675L394.355 216.224L398.625 211.868L398.026 210.291L391.957 209.765L390.683 210.291L391.283 211.643Z" fill="#4CCEDE"/>
<path d="M371.578 176.569L376.223 175.367L373.901 179.573L374.8 180.775L375.849 179.949L378.696 174.616L377.647 173.264L371.728 174.541L370.679 175.367L371.578 176.569Z" fill="#4CCEDE"/>
<path d="M342.582 148.931L346.703 146.453L345.654 151.109L346.928 152.011L347.677 150.959L348.801 144.951L347.452 143.975L342.132 146.904L341.383 148.03L342.582 148.931Z" fill="#4CCEDE"/>
<path d="M305.569 130.756L308.79 127.226L309.165 132.033L310.589 132.483L311.038 131.207L310.364 125.198L308.715 124.673L304.52 129.029L304.145 130.305L305.569 130.756Z" fill="#4CCEDE"/>
<path d="M262.637 124.447L264.585 120.091L266.458 124.522L267.957 124.522L267.957 123.171L265.484 117.688L263.761 117.613L261.138 123.095L261.138 124.447L262.637 124.447Z" fill="#4CCEDE"/>
<path d="M221.053 130.23L221.653 125.424L224.725 129.104L226.148 128.728L225.774 127.376L221.803 122.87L220.154 123.321L219.255 129.329L219.63 130.606L221.053 130.23Z" fill="#4CCEDE"/>
<path d="M184.34 147.279L183.516 142.548L187.487 145.176L188.761 144.35L188.011 143.224L182.917 140.069L181.493 140.971L182.317 146.979L183.066 148.105L184.34 147.279Z" fill="#4CCEDE"/>
<path d="M154.67 174.091L152.497 169.81L157.142 171.237L158.116 170.035L157.067 169.209L151.223 167.632L150.174 168.909L152.647 174.391L153.696 175.292L154.67 174.091Z" fill="#4CCEDE"/>
<path d="M133.99 209.239L130.694 205.71L135.489 205.71L136.088 204.283L134.815 203.757L128.821 203.982L128.146 205.559L132.192 210.066L133.391 210.591L133.99 209.239Z" fill="#4CCEDE"/>
<path d="M124.475 251.448L120.279 249.12L124.85 247.618L125 246.116L123.651 246.041L117.957 248.068L117.807 249.796L122.977 252.8L124.325 252.95L124.475 251.448Z" fill="#4CCEDE"/>
<path d="M437.662 228.091L441.708 228.992L438.261 231.32L438.486 232.672L439.685 232.447L443.956 229.367L443.656 227.865L438.561 226.588L437.437 226.814L437.662 228.091Z" fill="#4CCEDE"/>
<path d="M420.579 178.447L424.7 178.147L422.077 181.376L422.677 182.578L423.726 181.977L426.947 177.846L426.273 176.494L421.028 176.72L419.979 177.245L420.579 178.447Z" fill="#4CCEDE"/>
<path d="M390.009 136.464L393.905 134.962L392.332 138.867L393.231 139.844L394.055 139.018L395.928 134.061L394.879 133.009L389.934 134.737L389.11 135.563L390.009 136.464Z" fill="#4CCEDE"/>
<path d="M347.602 104.846L350.823 102.292L350.449 106.423L351.648 107.099L352.172 106.047L352.547 100.79L351.198 100.114L347.002 103.193L346.403 104.245L347.602 104.846Z" fill="#4CCEDE"/>
<path d="M295.155 87.0455L297.478 83.5907L298.377 87.6463L299.65 87.8716L299.875 86.745L298.602 81.638L297.178 81.3376L294.106 85.6185L293.881 86.745L295.155 87.0455Z" fill="#4CCEDE"/>
<path d="M241.283 85.468L242.482 81.4874L244.58 85.0925L245.854 84.9423L245.779 83.8157L243.006 79.3095L241.508 79.4597L239.86 84.4916L240.009 85.6182L241.283 85.468Z" fill="#4CCEDE"/>
<path d="M190.335 98.9118L190.335 94.706L193.407 97.635L194.605 97.1093L194.156 96.0578L190.26 92.5279L188.836 93.1288L188.686 98.386L189.136 99.4375L190.335 98.9118Z" fill="#4CCEDE"/>
<path d="M146.278 126.25L145.079 122.194L148.826 124.072L149.875 123.245L149.125 122.344L144.33 120.091L143.206 121.067L144.555 126.174L145.304 127.076L146.278 126.25Z" fill="#4CCEDE"/>
<path d="M111.814 165.829L109.491 162.375L113.612 163.051L114.286 161.999L113.387 161.323L108.142 160.572L107.318 161.849L110.09 166.28L111.064 166.956L111.814 165.829Z" fill="#4CCEDE"/>
<path d="M90.0851 216.449L86.7883 213.821L90.9841 213.295L91.2838 212.018L90.16 211.718L84.9901 212.544L84.6155 214.046L88.5866 217.426L89.7104 217.726L90.0851 216.449Z" fill="#4CCEDE"/>
<path d="M470.928 195.946L474.899 196.322L471.902 198.95L472.276 200.152L473.325 199.851L477.071 196.397L476.622 195.045L471.602 194.369L470.553 194.669L470.928 195.946Z" fill="#4CCEDE"/>
<path d="M443.206 138.341L447.177 137.59L445.005 140.97L445.679 142.021L446.653 141.421L449.2 137.065L448.451 135.863L443.431 136.614L442.457 137.29L443.206 138.341Z" fill="#4CCEDE"/>
<path d="M399 90.876L402.521 88.9984L401.472 92.9038L402.446 93.73L403.121 92.8287L404.319 87.8718L403.195 86.9706L398.7 89.2237L397.951 90.125L399 90.876Z" fill="#4CCEDE"/>
<path d="M340.334 58.0553L343.181 55.2013L343.331 59.2569L344.53 59.7075L344.905 58.6561L344.605 53.5491L343.256 53.0233L339.585 56.5532L339.21 57.6046L340.334 58.0553Z" fill="#4CCEDE"/>
<path d="M276.048 44.912L277.921 41.307L279.27 45.1373L280.543 45.2124L280.618 44.0858L278.745 39.3543L277.322 39.2792L274.849 43.7103L274.774 44.8369L276.048 44.912Z" fill="#4CCEDE"/>
<path d="M211.913 50.3949L212.662 46.4144L215.06 49.719L216.258 49.4186L216.034 48.292L212.887 44.3114L211.463 44.6119L210.414 49.5687L210.714 50.6953L211.913 50.3949Z" fill="#4CCEDE"/>
<path d="M152.422 73.7522L151.972 69.6966L155.194 72.175L156.318 71.4991L155.719 70.5227L151.598 67.5937L150.324 68.3447L150.774 73.3767L151.298 74.353L152.422 73.7522Z" fill="#4CCEDE"/>
<path d="M102.223 113.933L100.575 110.253L104.396 111.605L105.22 110.703L104.396 109.877L99.6005 108.3L98.6265 109.351L100.5 114.083L101.324 114.834L102.223 113.933Z" fill="#4CCEDE"/>
<path d="M65.0596 169.51L62.3623 166.506L66.4083 166.656L67.0077 165.529L65.9587 165.003L60.8638 164.928L60.2644 166.28L63.4862 170.186L64.5351 170.636L65.0596 169.51Z" fill="#4CCEDE"/>
<path d="M47.0034 233.273L43.5568 231.17L47.4529 230.119L47.6028 228.842L46.5538 228.692L41.6837 230.194L41.4589 231.621L45.7296 234.324L46.8535 234.475L47.0034 233.273Z" fill="#4CCEDE"/>
<path d="M499.099 156.367L502.621 156.291L500.223 158.92L500.673 159.896L501.572 159.521L504.494 156.216L503.969 155.015L499.549 154.94L498.65 155.39L499.099 156.367Z" fill="#4CCEDE"/>
<path d="M457.591 91.4767L460.888 90.4253L459.389 93.5796L460.138 94.4058L460.888 93.7299L462.611 89.7493L461.787 88.773L457.591 89.9747L456.842 90.6506L457.591 91.4767Z" fill="#4CCEDE"/>
<path d="M396.378 40.6314L399.226 38.6035L398.776 42.0583L399.675 42.6592L400.2 41.833L400.724 37.4019L399.6 36.801L395.929 39.2044L395.479 40.1056L396.378 40.6314Z" fill="#4CCEDE"/>
<path d="M324.674 11.7159L326.772 8.93708L327.372 12.3918L328.42 12.6172L328.645 11.7159L327.821 7.35992L326.547 7.05949L323.85 10.5142L323.625 11.4155L324.674 11.7159Z" fill="#4CCEDE"/>
<path d="M248.775 5.10704L250.049 1.80243L251.548 4.95682L252.672 4.88169L252.597 3.90535L250.574 -9.12593e-05L249.3 0.0750405L247.652 4.20578L247.727 5.18213L248.775 5.10704Z" fill="#4CCEDE"/>
<path d="M174.375 19.978L174.6 16.5232L176.998 19.0767L177.972 18.7012L177.672 17.7999L174.6 14.6456L173.401 15.0211L172.952 19.4523L173.326 20.3535L174.375 19.978Z" fill="#4CCEDE"/>
<path d="M106.944 56.3275L106.194 52.9478L109.191 54.6752L110.09 53.9993L109.491 53.2482L105.595 51.1453L104.621 51.8964L105.52 56.2524L106.119 57.0034L106.944 56.3275Z" fill="#4CCEDE"/>
<path d="M51.8736 113.407L50.0753 110.403L53.5219 111.154L54.1213 110.253L53.3721 109.727L49.0264 108.901L48.2771 109.877L50.45 113.707L51.2741 114.308L51.8736 113.407Z" fill="#4CCEDE"/>
<path d="M17.3329 183.404L14.7105 181.075L18.232 180.7L18.5317 179.648L17.6326 179.348L13.287 179.874L12.9123 181.075L16.0592 184.079L17.0332 184.38L17.3329 183.404Z" fill="#4CCEDE"/>
<path d="M5.34481 258.959L2.12303 257.457L5.41976 256.18L5.41976 255.053L4.4457 255.053L0.399756 256.781L0.399756 258.058L4.29588 260.01L5.2699 260.01L5.34481 258.959Z" fill="#4CCEDE"/>
</svg>
