<svg width="199" height="112" viewBox="0 0 199 112" fill="none" xmlns="http://www.w3.org/2000/svg">
<path fill-rule="evenodd" clip-rule="evenodd" d="M161.241 50.3365C170.481 50.3365 177.247 55.5803 178.238 65.1176H143.421C144.741 56.5339 151.175 50.3365 161.241 50.3365ZM182.1 87.1628C177.076 91.8544 170.58 94.2002 163.387 94.2002C154.971 94.2002 145.236 90.8635 143.421 80.5329H197.544C198.039 76.5584 198.204 73.5391 198.204 70.9972C198.204 45.7269 181.043 33.1719 161.903 33.1719C141.935 33.1719 121.97 46.8392 121.97 72.9044C121.97 99.2869 142.43 112.001 163.222 112.001C176.917 112.001 189.128 106.598 197.544 96.4262L197.538 96.42L182.1 87.1628Z" fill="white"/>
<path fill-rule="evenodd" clip-rule="evenodd" d="M2.50417 110.411H23.6258V35.0776H2.50417V110.411Z" fill="white"/>
<path fill-rule="evenodd" clip-rule="evenodd" d="M115.387 49.8867V35.0776H98.1198L76.3962 83.8698L54.4766 35.0776H37.2035V49.8743L66.495 110.411H86.131L115.387 49.8867Z" fill="white"/>
<path fill-rule="evenodd" clip-rule="evenodd" d="M12.9128 0C20.0529 0 26.1306 5.70741 26.1306 12.5846C26.1306 19.3156 20.0529 25.0214 12.9128 25.0214C5.92519 25.0214 0 19.3156 0 12.5846C0 5.70741 5.92519 0 12.9128 0Z" fill="white"/>
</svg>
